%YAML 1.1
%TAG !u! tag:unity3d.com,2011:
--- !u!114 &11400000
MonoBehaviour:
  m_ObjectHideFlags: 0
  m_CorrespondingSourceObject: {fileID: 0}
  m_PrefabInstance: {fileID: 0}
  m_PrefabAsset: {fileID: 0}
  m_GameObject: {fileID: 0}
  m_Enabled: 1
  m_EditorHideFlags: 0
  m_Script: {fileID: 11500000, guid: a3c13f5c9efeb5c4c84e808f3fc6882f, type: 3}
  m_Name: BuoyancyConfig
  m_EditorClassIdentifier: 
  dropBuoyancyForce: 1
  dropDrag: 0.01
  directDropDrag: 0.2
